Rudy Stafford,"14 Arch St.  Lakeland, FL 33801"
Billy Brock,"130 Clay Drive  Norfolk, VA 23503"
Alberto Alexander,"395 Pennington Rd.  Royal Oak, MI 48067"
Scarlett Strickland,"341 Shirley Ave.  Holland, MI 49423"
Micah Simpson,"65 Wild Horse Ave.  Ephrata, PA 17522"
Jaidyn Humphrey,"67 Indian Spring Ave.  Westminster, MD 21157"
Kolten Stephenson,"39 S. Studebaker Drive  Saratoga Springs, NY 12866"
Reynaldo Hartman,"65 Lyme St.  Marion, NC 28752"
Brendan Russo,"4 Rose Lane  Stoughton, MA 02072"
Livia Santos,"183 Theatre Rd.  South El Monte, CA 91733"
Eden Villa,"874 West Brewery Road  Emporia, KS 66801"
Jarrett Smith,"9521 Beechwood Street  Lake Mary, FL 32746"
Paxton Shelton,"84 Coffee Dr.  Carpentersville, IL 60110"
Lukas Washington,"8 John Lane  Bay City, MI 48706"
Kierra Chen,"41 Vine Lane  Williamsport, PA 17701"
Makhi Gallagher,"8246 Miller Street  Wantagh, NY 11793"
Lisa Lindsey,"486 E. Briarwood St.  Sidney, OH 45365"
Shyann Hanna,"401 Warren Street  North Miami Beach, FL 33160"
Genesis Mcconnell,"768 El Dorado St.  Battle Creek, MI 49015"
Jada Ford,"7037 Griffin Drive  Reston, VA 20191"
Jayson Norman,"83 N. Locust Street  Minneapolis, MN 55406"
Maren Flynn,"7278 North Orchard Court  Harrisburg, PA 17109"
Maximillian Weaver,"393 Young Street  Hackensack, NJ 07601"
Lacey Warren,"718 Pierce Street  Murrells Inlet, SC 29576"
Yandel Costa,"9626 Liberty Lane  Kenosha, WI 53140"
Gunnar Rich,"2 Ohio St.  Apex, NC 27502"
Cordell Cox,"36 Boston St.  Redondo Beach, CA 90278"
Alexis Shields,"462 4th Ave.  Jonesborough, TN 37659"
Alejandra Jacobs,"85 Prospect Ave.  Nicholasville, KY 40356"
Payton Alvarez,"222 W. Rockcrest Street  Chippewa Falls, WI 54729"
Angela Jensen,"8651 West Belmont St.  Mount Prospect, IL 60056"
Anderson Arias,"9436 South Sussex St.  Edison, NJ 08817"
Zaire Pena,"102 N. Wellington Street  Xenia, OH 45385"
Beckett Anderson,"480 Marconi Dr.  Wasilla, AK 99654"
Harry Kidd,"922 Old York Drive  Danbury, CT 06810"
Deven Levine,"362 Atlantic Lane  Granger, IN 46530"
Alannah Duarte,"54 Kent Rd.  Ooltewah, TN 37363"
Daniela Clark,"5 Argyle Street  Schaumburg, IL 60193"
Pierre Oliver,"912 Sunbeam Drive  Fond Du Lac, WI 54935"
Annabella Waters,"9155 Hilltop St.  Dalton, GA 30721"
Tyrell Holland,"7157 E. Madison Rd.  Lorain, OH 44052"
Jaylan Barker,"320 Hickory Dr.  Paducah, KY 42001"
Marshall Walker,"424 Grant St.  Poughkeepsie, NY 12601"
Ahmed Miranda,"291 Bay Meadows Rd.  Parkersburg, WV 26101"
Michaela Wheeler,"179 Tunnel Court  Lawrence, MA 01841"
Leticia Wolfe,"1 Wood St.  Teaneck, NJ 07666"
Conor Horn,"4 North Elmwood Avenue  Danville, VA 24540"
Kianna Boyle,"12 Miles Street  Millville, NJ 08332"
Brennan Watson,"381 West Pleasant St.  Port Washington, NY 11050"
Leah Sexton,"9040 Bishop St.  New City, NY 10956"
Penelope Castillo,"276 Stillwater Street  Anderson, SC 29621"
Jaylin Barton,"522 Bank St.  Massapequa, NY 11758"
Karlie Perry,"9676 Jackson Rd.  Severna Park, MD 21146"
Yasmin Howard,"304 Strawberry Ave.  High Point, NC 27265"
Emanuel Cooley,"88 Meadowbrook Rd.  Fort Walton Beach, FL 32547"
Nasir Pace,"7505 S. Circle Court  Newport News, VA 23601"
Landen Sandoval,"7388 Pennington Street  Willingboro, NJ 08046"
Triston Wagner,"7949 Holly Street  Hillsboro, OR 97124"
Angelica Elliott,"6 Hillcrest Street  Central Islip, NY 11722"
Jayda Larsen,"741 Smith Store Lane  Canfield, OH 44406"
Karson Owens,"8444 Alderwood Lane  Aberdeen, SD 57401"
Layton Lin,"58 Meadow Avenue  New Port Richey, FL 34653"
Clarence Wu,"50 Manor Drive  Orchard Park, NY 14127"
Madyson Baker,"140 Grandrose Ave.  Waterbury, CT 06705"
Jameson Soto,"364 Winchester Drive  Canandaigua, NY 14424"
Taniyah Romero,"66 Wild Horse St.  Lockport, NY 14094"
Eileen Kane,"9648 Woodland St.  Shrewsbury, MA 01545"
Jeremiah Kirk,"448 Edgefield St.  Streamwood, IL 60107"
Lorelai Sullivan,"5 Cedarwood St.  Saint Paul, MN 55104"
Joey Dougherty,"594 N. Albany Drive  Vista, CA 92083"
William Zuniga,"86 Harvard St.  East Orange, NJ 07017"
Abbie Parrish,"66 Del Monte Ave.  Batavia, OH 45103"
Lamar Farley,"868 Trenton St.  Georgetown, SC 29440"
Kathleen Nixon,"1 West Andover Road  Dekalb, IL 60115"
Alan Foley,"333 Birchwood Street  Corona, NY 11368"
Amya Gentry,"9962 Campfire St.  Durham, NC 27703"
Caylee Cline,"1 E. Wakehurst St.  Hammonton, NJ 08037"
Matthew Dixon,"71 West Brown Lane  Little Rock, AR 72209"
Zain Burns,"49 Smoky Hollow Rd.  New Castle, PA 16101"
Kamden Esparza,"7632 Court Ave.  Round Lake, IL 60073"
Ada Morgan,"67 Acacia Street  Bardstown, KY 40004"
Ibrahim Wise,"8971 Pine St.  Wooster, OH 44691"
Alonso Villanueva,"8241 Rock Maple Street  Downers Grove, IL 60515"
Kamila Haley,"959 West Carson Street  Herndon, VA 20170"
Elianna Key,"73 Olive Street  Sylvania, OH 43560"
Jaime Nolan,"7088 West San Pablo Lane  Stow, OH 44224"
Gianni Walters,"7509 Addison Rd.  Middleburg, FL 32068"
Dayana Boyer,"9788 Trenton Lane  Port Jefferson Station, NY 11776"
Clark Allen,"108 North Golden Star St.  Canal Winchester, OH 43110"
Stephen Mcmillan,"8991 Shore Dr.  Winter Haven, FL 33880"
Heidy Wolf,"9489 Brookside Ave.  La Vergne, TN 37086"
Jazlene Mahoney,"42 North Court  Mason City, IA 50401"
Jazmyn Price,"61 East Halifax Drive  Westwood, NJ 07675"
Weston Keller,"8017 Young St.  Peachtree City, GA 30269"
Malaki Jenkins,"47 Ridge Street  King Of Prussia, PA 19406"
Jadiel Sellers,"956 Cottage St.  Southgate, MI 48195"
Tristin Dunn,"10 Piper Dr.  Lancaster, NY 14086"
Brisa Manning,"753 South Deerfield Rd.  Bridgeton, NJ 08302"
Nikhil Joyce,"787 Heather Rd.  Boston, MA 02127"
Alana York,"391 Primrose St.  Harrisonburg, VA 22801"
Essence Ellis,"950 Bow Ridge St.  Springfield, PA 19064"
Kaya Cordova,"271 Harrison St.  Grove City, OH 43123"
Trystan Ryan,"304 Gulf Street  Liverpool, NY 13090"
Deandre Maddox,"7401 Spring Dr.  Lawrence Township, NJ 08648"
Cherish Bradshaw,"767 Glen Creek Court  Manchester Township, NJ 08759"
Kristen Cuevas,"8065 Manor Street  Washington, PA 15301"
Janiah Horne,"6 Bridle Street  Winter Garden, FL 34787"
Mark Dunlap,"6 Glenlake Dr.  Old Bridge, NJ 08857"
Chad Davies,"2 Military Dr.  Essex, MD 21221"
Caitlyn Tucker,"133 North Franklin Street  Nashville, TN 37205"
Gaige Oconnor,"9010 W. 53rd St.  Daphne, AL 36526"
Genevieve Rice,"854 Central Street  Victoria, TX 77904"
Dallas Burch,"248 Miles Lane  West Warwick, RI 02893"
Maximus Fuller,"83 East Rock Maple Drive  Rolla, MO 65401"
Edgar Abbott,"50 NW. Livingston St.  East Lansing, MI 48823"
Dean Haas,"69 Shadow Brook Ave.  Hephzibah, GA 30815"
Omar Hale,"267 Jones St.  Cumberland, RI 02864"
Elyse Hensley,"8101 NW. Crescent Street  Clarksburg, WV 26301"
Brody Schroeder,"9 W. Cactus Ave.  Lithonia, GA 30038"
Frederick Mckee,"8730 Pendergast St.  Endicott, NY 13760"
Braylen Farmer,"83 Garfield Road  Cookeville, TN 38501"
Finley Meyers,"759 Shirley Dr.  Thibodaux, LA 70301"
Justice Goodman,"8612 Piper Street  Buckeye, AZ 85326"
Keyon Colon,"8722 Manhattan Dr.  Winder, GA 30680"
Raiden Cunningham,"7748 Bay Meadows Ave.  Ridgefield, CT 06877"
Elsa Odom,"7690 N. El Dorado Drive  Palm Harbor, FL 34683"
Taylor Mcdonald,"56 North Fawn Dr.  Miamisburg, OH 45342"
Sheldon Wall,"19 NW. Garfield Ave.  Hermitage, TN 37076"
Elena Mcfarland,"570 Glen Ridge St.  Key West, FL 33040"
Kasey Nelson,"92 Courtland St.  Garland, TX 75043"
Zoe Mccarthy,"7717 Griffin St.  Burbank, IL 60459"
Jagger Best,"14 Corona Lane  North Fort Myers, FL 33917"
Briley Gross,"152 Oak Meadow Street  Goldsboro, NC 27530"
Leonidas Kline,"9594 East Amerige St.  Hallandale, FL 33009"
Cassidy Riley,"675 Shady Street  Ypsilanti, MI 48197"
Brooklynn Shepherd,"36 South Indian Summer Ave.  Shelbyville, TN 37160"
Aidyn Harrell,"94 N. William St.  North Andover, MA 01845"
Denisse Macias,"67 Cherry St.  Cambridge, MA 02138"
Dahlia Solis,"7 Shady Street  Raleigh, NC 27603"
Chase Robbins,"659 Central Street  Fresno, CA 93706"
Amelie Sloan,"9931 North Mechanic Ave.  Gettysburg, PA 17325"
Tiffany Cook,"36 Summerhouse St.  Lake Worth, FL 33460"
Celia Cardenas,"81 Pearl St.  Hoboken, NJ 07030"
Dakota Fleming,"7088 High Ridge Street  Potomac, MD 20854"
Chaim Stokes,"605 Riverview Dr.  Rahway, NJ 07065"
Maximo Terry,"5 La Sierra St.  Hamden, CT 06514"
Ariella Kramer,"7649 Hawthorne Court  Northville, MI 48167"
Nelson Paul,"9652 Brown St.  Sterling, VA 20164"
Jaylah Giles,"173 Tanglewood Street  Niceville, FL 32578"
Ryder Gallegos,"8397 Rock Creek Street  Wenatchee, WA 98801"
Mollie Reese,"793 Hill Drive  Detroit, MI 48205"
Zaniyah Gonzales,"8594 N. Shub Farm Court  Princeton, NJ 08540"
Rigoberto Sparks,"3 North College Circle  Lenoir, NC 28645"
Erik Martinez,"26 Glen Eagles Ave.  Perth Amboy, NJ 08861"
Pranav Rowe,"887 Tallwood Rd.  Ann Arbor, MI 48103"
Allisson Wilkinson,"689C Fremont Street  Lebanon, PA 17042"
Kallie Carroll,"24 Piper Ave.  Lynchburg, VA 24502"
Trevin Moore,"9653 10th St.  State College, PA 16801"
Thaddeus Nash,"83 North Tower St.  Skokie, IL 60076"
Travis Golden,"976 Main Ave.  Benton Harbor, MI 49022"
Eric Leon,"29 Colonial Street  Williamstown, NJ 08094"
Judah Graham,"780 West Country Club Street  Vernon Rockville, CT 06066"
Jordon Robertson,"9728 N. Theatre Avenue  Haines City, FL 33844"
Lilian Hampton,"9426 Washington St.  Trussville, AL 35173"
Kathryn Roy,"47 Argyle St.  Raeford, NC 28376"
Jamison Fischer,"7544 Water Ave.  Glendora, CA 91740"
Clay Atkinson,"8933 Riverside St.  Sevierville, TN 37876"
Kristina Buchanan,"41 Manor Street  Algonquin, IL 60102"
Kaitlynn Schultz,"83 Fairway Road  Marshalltown, IA 50158"
Aliya Simon,"8463 Water Ave.  Chandler, AZ 85224"
Isabela Rivera,"9882 Bishop Street  Joliet, IL 60435"
Scott Hurley,"222 Baker St.  Collegeville, PA 19426"
Steven Moody,"4 Walnutwood Ave.  Clover, SC 29710"
Areli Mata,"80 Wood Drive  Janesville, WI 53546"
Bianca Wright,"66 Annadale Dr.  Rome, NY 13440"
Tate Delgado,"8831 Bald Hill St.  Santa Monica, CA 90403"
Lorenzo Reid,"8579 Temple Lane  Attleboro, MA 02703"
Garrett Salas,"2 North Park Ave.  Framingham, MA 01701"
Donovan Callahan,"19 Olive Drive  Farmingdale, NY 11735"
Amy Porter,"91 Elizabeth Ave.  Langhorne, PA 19047"
Fisher Combs,"986 Lees Creek Ave.  Covington, GA 30014"
Karli Chan,"9104 Hilltop Rd.  Arlington Heights, IL 60004"
Allen Dickson,"7921 Nicolls Ave.  Phoenixville, PA 19460"
Malakai Mercer,"9187 Wall St.  Bethpage, NY 11714"
Wilson Kerr,"78 Rockledge Drive  East Hartford, CT 06118"
Mina Delacruz,"8056 West High Point St.  Monroeville, PA 15146"
Iyana Ruiz,"7379 East Kent St.  Staunton, VA 24401"
Alani Deleon,"7654 Gainsway Street  New Berlin, WI 53151"
Cristian Walls,"9135 North Shipley Street  Flint, MI 48504"
Rolando Butler,"7 Coffee St.  Cape Coral, FL 33904"
Darian Green,"7152 Golf Avenue  Greer, SC 29650"
Anabella Hoffman,"9 Glen Ridge Avenue  San Angelo, TX 76901"
Sage French,"2 Primrose Court  Londonderry, NH 03053"
Howard Lambert,"7059 New Saddle Lane  Neenah, WI 54956"
Adrian Richardson,"40 Oak Meadow Road  Chatsworth, GA 30705"
Jazlyn Bridges,"29 W. Ryan Dr.  Pearl, MS 39208"
Aditya Perez,"295 George St.  Helena, MT 59601"
Gretchen Le,"8197 Big Rock Cove Street  Shakopee, MN 55379"
Osvaldo Salazar,"8961 Madison St.  Hopewell, VA 23860"
Danielle Clements,"8489 San Juan St.  Willoughby, OH 44094"